id,firstName,lastName,annualSalary,superRate,startDate
1,leslie,su,120000,0.09,2018-06-01
2,andy,liu,110000,0.08,2018-06-01
3,jack,su,54000,0.09,2018-06-01
4,leo,liu,38000,0.09,2018-06-01
5,jack,ma,8800000,0.09,2018-06-01